…
---

## Importing data


```r
data_1<-read_csv("data/Exercises/session_1/data_1.csv")
data_1
```

```
## # A tibble: 51 x 18
##    trialNb cuedHemifield  cueValidity       taskType stimType stimDuration
##      <int>         <chr>        <chr>          <chr>    <chr>        <dbl>
##  1       0         right   consistent      detection    stim1       0.0999
##  2       1          left   consistent discrimination    stim1       0.0999
##  3       2         right   consistent      detection    stim1       0.0999
##  4       3          left inconsistent      detection    stim1       0.0982
##  5       4          left   consistent      detection    stim1       0.0982
##  6       5          left   consistent      detection    stim2       0.0999
##  7       6         right   consistent      detection    stim2       0.0999
##  8       7          left   consistent      detection    stim2       0.0999
##  9       8         right   consistent      detection    stim2       0.0999
## 10       9         right   consistent discrimination    stim1       0.0999
## # ... with 41 more rows, and 12 more variables: stimOnset <dbl>,
## #   trialNb_1 <int>, detectionAccuracy <chr>,
## #   discriminationAccuracy <chr>, responseRT <dbl>, visibility <chr>,
## #   visibilityRT <dbl>, stimSOA <dbl>, artifact <chr>, noise50Hz <chr>,
## #   saccades <chr>, blinks <chr>
```
…
