…
--- 

## Better dataframes: tibbles !!

### Load the `gapminder` library to access the gapminder dataset

```r
library(gapminder)
gapminder
```

```
## # A tibble: 1,704 x 6
##        country continent  year lifeExp      pop gdpPercap
##         <fctr>    <fctr> <int>   <dbl>    <int>     <dbl>
##  1 Afghanistan      Asia  1952  28.801  8425333  779.4453
##  2 Afghanistan      Asia  1957  30.332  9240934  820.8530
##  3 Afghanistan      Asia  1962  31.997 10267083  853.1007
##  4 Afghanistan      Asia  1967  34.020 11537966  836.1971
##  5 Afghanistan      Asia  1972  36.088 13079460  739.9811
##  6 Afghanistan      Asia  1977  38.438 14880372  786.1134
##  7 Afghanistan      Asia  1982  39.854 12881816  978.0114
##  8 Afghanistan      Asia  1987  40.822 13867957  852.3959
##  9 Afghanistan      Asia  1992  41.674 16317921  649.3414
## 10 Afghanistan      Asia  1997  41.763 22227415  635.3414
## # ... with 1,694 more rows
```
…
## Better dataframes: Tibbles

### You can convert a data frame into a tibble

```r
as.tibble(iris)
```

```
## # A tibble: 150 x 5
##    Sepal.Length Sepal.Width Petal.Length Petal.Width Species
##           <dbl>       <dbl>        <dbl>       <dbl>  <fctr>
##  1          5.1         3.5          1.4         0.2  setosa
##  2          4.9         3.0          1.4         0.2  setosa
##  3          4.7         3.2          1.3         0.2  setosa
##  4          4.6         3.1          1.5         0.2  setosa
##  5          5.0         3.6          1.4         0.2  setosa
##  6          5.4         3.9          1.7         0.4  setosa
##  7          4.6         3.4          1.4         0.3  setosa
##  8          5.0         3.4          1.5         0.2  setosa
##  9          4.4         2.9          1.4         0.2  setosa
## 10          4.9         3.1          1.5         0.1  setosa
## # ... with 140 more rows
```
…
---

## Categorical variables: factors

### Factors encode categorical variables


```r
gapminder
```

```
## # A tibble: 1,704 x 6
##        country continent  year lifeExp      pop gdpPercap
##         <fctr>    <fctr> <int>   <dbl>    <int>     <dbl>
##  1 Afghanistan      Asia  1952  28.801  8425333  779.4453
##  2 Afghanistan      Asia  1957  30.332  9240934  820.8530
##  3 Afghanistan      Asia  1962  31.997 10267083  853.1007
##  4 Afghanistan      Asia  1967  34.020 11537966  836.1971
##  5 Afghanistan      Asia  1972  36.088 13079460  739.9811
##  6 Afghanistan      Asia  1977  38.438 14880372  786.1134
##  7 Afghanistan      Asia  1982  39.854 12881816  978.0114
##  8 Afghanistan      Asia  1987  40.822 13867957  852.3959
##  9 Afghanistan      Asia  1992  41.674 16317921  649.3414
## 10 Afghanistan      Asia  1997  41.763 22227415  635.3414
## # ... with 1,694 more rows
```
…
```
## # A tibble: 1 x 4
##       country   `1952`   `1972`   `1992`
##        <fctr>    <dbl>    <dbl>    <dbl>
## 1 Afghanistan 779.4453 739.9811 649.3414
```

---

## Tidy data
### gapminder_1

```
## # A tibble: 852 x 4
##        country  year variable_name variable_value
##         <fctr> <int>         <chr>          <dbl>
##  1 Afghanistan  1952       lifeExp         28.801
##  2 Afghanistan  1972       lifeExp         36.088
##  3 Afghanistan  1992       lifeExp         41.674
##  4     Albania  1952       lifeExp         55.230
##  5     Albania  1972       lifeExp         67.690
##  6     Albania  1992       lifeExp         71.581
##  7     Algeria  1952       lifeExp         43.077
##  8     Algeria  1972       lifeExp         54.518
##  9     Algeria  1992       lifeExp         67.744
## 10      Angola  1952       lifeExp         30.015
## # ... with 842 more rows
```

---

## Tidy data
### gapminder_1

```
## # A tibble: 852 x 4
##        country  year variable_name variable_value
##         <fctr> <int>         <chr>          <dbl>
##  1 Afghanistan  1952       lifeExp         28.801
##  2 Afghanistan  1972       lifeExp         36.088
##  3 Afghanistan  1992       lifeExp         41.674
##  4     Albania  1952       lifeExp         55.230
##  5     Albania  1972       lifeExp         67.690
##  6     Albania  1992       lifeExp         71.581
##  7     Algeria  1952       lifeExp         43.077
##  8     Algeria  1972       lifeExp         54.518
##  9     Algeria  1992       lifeExp         67.744
## 10      Angola  1952       lifeExp         30.015
## # ... with 842 more rows
```

**NOT TIDY**


---.smallcode


## Tidy data
### gapminder_2

```
## # A tibble: 142 x 7
##        country gdpPercap_1952 gdpPercap_1972 gdpPercap_1992 lifeExp_1952
##  *      <fctr>          <dbl>          <dbl>          <dbl>        <dbl>
##  1 Afghanistan       779.4453       739.9811       649.3414       28.801
##  2     Albania      1601.0561      3313.4222      2497.4379       55.230
##  3     Algeria      2449.0082      4182.6638      5023.2166       43.077
##  4      Angola      3520.6103      5473.2880      2627.8457       30.015
##  5   Argentina      5911.3151      9443.0385      9308.4187       62.485
##  6   Australia     10039.5956     16788.6295     23424.7668       69.120
##  7     Austria      6137.0765     16661.6256     27042.0187       66.800
##  8     Bahrain      9867.0848     18268.6584     19035.5792       50.939
##  9  Bangladesh       684.2442       630.2336       837.8102       37.484
## 10     Belgium      8343.1051     16672.1436     25575.5707       68.000
## # ... with 132 more rows, and 2 more variables: lifeExp_1972 <dbl>,
## #   lifeExp_1992 <dbl>
```

--- .smallcode

## Tidy data
### gapminder_2

```
## # A tibble: 142 x 7
##        country gdpPercap_1952 gdpPercap_1972 gdpPercap_1992 lifeExp_1952
##  *      <fctr>          <dbl>          <dbl>          <dbl>        <dbl>
##  1 Afghanistan       779.4453       739.9811       649.3414       28.801
##  2     Albania      1601.0561      3313.4222      2497.4379       55.230
##  3     Algeria      2449.0082      4182.6638      5023.2166       43.077
##  4      Angola      3520.6103      5473.2880      2627.8457       30.015
##  5   Argentina      5911.3151      9443.0385      9308.4187       62.485
##  6   Australia     10039.5956     16788.6295     23424.7668       69.120
##  7     Austria      6137.0765     16661.6256     27042.0187       66.800
##  8     Bahrain      9867.0848     18268.6584     19035.5792       50.939
##  9  Bangladesh       684.2442       630.2336       837.8102       37.484
## 10     Belgium      8343.1051     16672.1436     25575.5707       68.000
## # ... with 132 more rows, and 2 more variables: lifeExp_1972 <dbl>,
## #   lifeExp_1992 <dbl>
```

**NOT TIDY**

---

## Tidy data
### gapminder_3

```
## # A tibble: 426 x 4
##        country  year lifeExp gdpPercap
##         <fctr> <int>   <dbl>     <dbl>
##  1 Afghanistan  1952  28.801  779.4453
##  2 Afghanistan  1972  36.088  739.9811
##  3 Afghanistan  1992  41.674  649.3414
##  4     Albania  1952  55.230 1601.0561
##  5     Albania  1972  67.690 3313.4222
##  6     Albania  1992  71.581 2497.4379
##  7     Algeria  1952  43.077 2449.0082
##  8     Algeria  1972  54.518 4182.6638
##  9     Algeria  1992  67.744 5023.2166
## 10      Angola  1952  30.015 3520.6103
## # ... with 416 more rows
```

---

## Tidy data
### gapminder_3

```
## # A tibble: 426 x 4
##        country  year lifeExp gdpPercap
##         <fctr> <int>   <dbl>     <dbl>
##  1 Afghanistan  1952  28.801  779.4453
##  2 Afghanistan  1972  36.088  739.9811
##  3 Afghanistan  1992  41.674  649.3414
##  4     Albania  1952  55.230 1601.0561
##  5     Albania  1972  67.690 3313.4222
##  6     Albania  1992  71.581 2497.4379
##  7     Algeria  1952  43.077 2449.0082
##  8     Algeria  1972  54.518 4182.6638
##  9     Algeria  1992  67.744 5023.2166
## 10      Angola  1952  30.015 3520.6103
## # ... with 416 more rows
```
…
```r
spread(gapminder_1, key = variable_name, value = variable_value)
```

```
## # A tibble: 426 x 4
##        country  year gdpPercap lifeExp
##  *      <fctr> <int>     <dbl>   <dbl>
##  1 Afghanistan  1952  779.4453  28.801
##  2 Afghanistan  1972  739.9811  36.088
##  3 Afghanistan  1992  649.3414  41.674
##  4     Albania  1952 1601.0561  55.230
##  5     Albania  1972 3313.4222  67.690
##  6     Albania  1992 2497.4379  71.581
##  7     Algeria  1952 2449.0082  43.077
##  8     Algeria  1972 4182.6638  54.518
##  9     Algeria  1992 5023.2166  67.744
## 10      Angola  1952 3520.6103  30.015
## # ... with 416 more rows
```
…
```r
gapminder_2 %>%
  gather(key= variable_type, value=variable_value, -country) %>%
  separate(col=variable_type, into=c("var_type", "year")) %>%
  spread(key=var_type, value=variable_value)
```

```
## # A tibble: 426 x 4
##        country  year gdpPercap lifeExp
##  *      <fctr> <chr>     <dbl>   <dbl>
##  1 Afghanistan  1952  779.4453  28.801
##  2 Afghanistan  1972  739.9811  36.088
##  3 Afghanistan  1992  649.3414  41.674
##  4     Albania  1952 1601.0561  55.230
##  5     Albania  1972 3313.4222  67.690
##  6     Albania  1992 2497.4379  71.581
##  7     Algeria  1952 2449.0082  43.077
##  8     Algeria  1972 4182.6638  54.518
##  9     Algeria  1992 5023.2166  67.744
## 10      Angola  1952 3520.6103  30.015
## # ... with 416 more rows
```
…
*** =fullwidth

Source: **H. Wickham** - [*R* for data science](http://r4ds.had.co.nz/vectors.html) - [CC license](https://creativecommons.org/licenses/by-nc-nd/3.0/us/)


---.smallcode &twocol_l

## Making data tidy - Challenge 
### Join our two datasets into one !

*** =left

```
## # A tibble: 142 x 4
##        country `1952` `1972` `1992`
##  *      <fctr>  <dbl>  <dbl>  <dbl>
##  1 Afghanistan 28.801 36.088 41.674
##  2     Albania 55.230 67.690 71.581
##  3     Algeria 43.077 54.518 67.744
##  4      Angola 30.015 37.928 40.647
##  5   Argentina 62.485 67.065 71.868
##  6   Australia 69.120 71.930 77.560
##  7     Austria 66.800 70.630 76.040
##  8     Bahrain 50.939 63.300 72.601
##  9  Bangladesh 37.484 45.252 56.018
## 10     Belgium 68.000 71.440 76.460
## # ... with 132 more rows
```

*** =right

```
## # A tibble: 142 x 4
##        country     `1952`     `1972`     `1992`
##  *      <fctr>      <dbl>      <dbl>      <dbl>
##  1 Afghanistan   779.4453   739.9811   649.3414
##  2     Albania  1601.0561  3313.4222  2497.4379
##  3     Algeria  2449.0082  4182.6638  5023.2166
##  4      Angola  3520.6103  5473.2880  2627.8457
##  5   Argentina  5911.3151  9443.0385  9308.4187
##  6   Australia 10039.5956 16788.6295 23424.7668
##  7     Austria  6137.0765 16661.6256 27042.0187
##  8     Bahrain  9867.0848 18268.6584 19035.5792
##  9  Bangladesh   684.2442   630.2336   837.8102
## 10     Belgium  8343.1051 16672.1436 25575.5707
## # ... with 132 more rows
```
…
## Making data tidy - Challenge 
### Join our two datasets into one !

*** =left

```r
gapminder_4_1 %>% 
  gather(key=year, value=lifeExp,-country) -> 
  gapminder_4_1_temp 
```


```
## # A tibble: 426 x 3
##        country  year lifeExp
##         <fctr> <chr>   <dbl>
##  1 Afghanistan  1952  28.801
##  2     Albania  1952  55.230
##  3     Algeria  1952  43.077
##  4      Angola  1952  30.015
##  5   Argentina  1952  62.485
##  6   Australia  1952  69.120
##  7     Austria  1952  66.800
##  8     Bahrain  1952  50.939
##  9  Bangladesh  1952  37.484
## 10     Belgium  1952  68.000
## # ... with 416 more rows
```

*** =right


```r
gapminder_4_2 %>% 
  gather(key=year, value=lifeExp,-country) -> 
  gapminder_4_2_temp
```



```
## # A tibble: 426 x 3
##        country  year    lifeExp
##         <fctr> <chr>      <dbl>
##  1 Afghanistan  1952   779.4453
##  2     Albania  1952  1601.0561
##  3     Algeria  1952  2449.0082
##  4      Angola  1952  3520.6103
##  5   Argentina  1952  5911.3151
##  6   Australia  1952 10039.5956
##  7     Austria  1952  6137.0765
##  8     Bahrain  1952  9867.0848
##  9  Bangladesh  1952   684.2442
## 10     Belgium  1952  8343.1051
## # ... with 416 more rows
```
…
*** =left


```
## # A tibble: 426 x 3
##        country  year lifeExp
##         <fctr> <chr>   <dbl>
##  1 Afghanistan  1952  28.801
##  2     Albania  1952  55.230
##  3     Algeria  1952  43.077
##  4      Angola  1952  30.015
##  5   Argentina  1952  62.485
##  6   Australia  1952  69.120
##  7     Austria  1952  66.800
##  8     Bahrain  1952  50.939
##  9  Bangladesh  1952  37.484
## 10     Belgium  1952  68.000
## # ... with 416 more rows
```

*** =right


```
## # A tibble: 426 x 3
##        country  year    lifeExp
##         <fctr> <chr>      <dbl>
##  1 Afghanistan  1952   779.4453
##  2     Albania  1952  1601.0561
##  3     Algeria  1952  2449.0082
##  4      Angola  1952  3520.6103
##  5   Argentina  1952  5911.3151
##  6   Australia  1952 10039.5956
##  7     Austria  1952  6137.0765
##  8     Bahrain  1952  9867.0848
##  9  Bangladesh  1952   684.2442
## 10     Belgium  1952  8343.1051
## # ... with 416 more rows
```
…
