…
---.smallcode

## Preprocess data: first glimpse of the dataset

### Quick overview: variable number and type, number of rows ....



```r
raw_data
```

```
## # A tibble: 51,200 x 8
##       X1    X2    X3    X4    X5      X6    X7    X8
##    <int> <int> <dbl> <int> <int>   <dbl> <chr> <int>
##  1     1     1   0.3     2     1 0.43160   P10     1
##  2     1     2   0.3     0     1 0.39841   P10     1
##  3     1     3   0.4     2     1 0.38182   P10     1
##  4     1     4   0.3     0     1 0.41502   P10     1
##  5     1     5   0.5     0     1 0.29885   P10     1
##  6     1     6   0.5     2     1 0.29885   P10     1
##  7     1     7   0.6     0     1 0.23247   P10     1
##  8     1     8   0.3     2     1 0.43160   P10     1
##  9     1     9   0.5     0     1 0.29885   P10     1
## 10     1    10   0.6     0     1 0.26564   P10     1
## # ... with 51,190 more rows
```
…
---.smallcode

## Check that participants were 'behaving well'

Use `group_by()` and `summarise()` to inspect individual hit-rates for each session. 


```r
raw_data %>%
  group_by(part_nb, session_nb) %>%
  summarise(hit_rate = mean(response))
```

```
## # A tibble: 80 x 3
## # Groups:   part_nb [?]
##    part_nb session_nb  hit_rate
##      <chr>     <fctr>     <dbl>
##  1      P1          1 0.9671875
##  2      P1          2 0.9859375
##  3     P10          1 0.9718750
##  4     P10          2 0.9625000
##  5     P12          1 0.9718750
##  6     P12          2 0.9687500
##  7     P13          1 0.9593750
##  8     P13          2 0.9812500
##  9     P14          1 0.9875000
## 10     P14          2 0.9937500
## # ... with 70 more rows
```
…
```r
erp_data %>%
  gather() %>%
  separate() %>%
  mutate() ->erp_data
```


```
## Warning: Too few values at 30120 locations: 1, 2, 3, 4, 5, 6, 7, 8, 9, 10,
## 11, 12, 13, 14, 15, 16, 17, 18, 19, 20, ...
```

```
## # A tibble: 30,120 x 5
##    Subject Instruction     x  time amplitude
##     <fctr>      <fctr> <chr> <dbl>     <chr>
##  1      S1         TBR     x    NA          
##  2      S1         TBF     x    NA          
##  3      S2         TBR     x    NA          
##  4      S2         TBF     x    NA          
##  5      S3         TBR     x    NA          
##  6      S3         TBF     x    NA          
##  7      S4         TBR     x    NA          
##  8      S4         TBF     x    NA          
##  9      S5         TBR     x    NA          
## 10      S5         TBF     x    NA          
## # ... with 30,110 more rows
```
…
```
## Warning: Too few values at 90360 locations: 1, 2, 3, 4, 5, 6, 7, 8, 9, 10,
## 11, 12, 13, 14, 15, 16, 17, 18, 19, 20, ...
```


```r
erp_data
```

```
## # A tibble: 90,360 x 5
##    Subject Instruction     x  time amplitude
##     <fctr>      <fctr> <chr> <dbl>     <chr>
##  1      S1         TBR     x    NA         x
##  2      S1         TBF     x    NA         x
##  3      S2         TBR     x    NA         x
##  4      S2         TBF     x    NA         x
##  5      S3         TBR     x    NA         x
##  6      S3         TBF     x    NA         x
##  7      S4         TBR     x    NA         x
##  8      S4         TBF     x    NA         x
##  9      S5         TBR     x    NA         x
## 10      S5         TBF     x    NA         x
## # ... with 90,350 more rows
```
…
## Create informative ERP plots - differences

Compute the difference between conditions


```r
erp_data %>% 
  spread(key = , value = ) %>%
  mutate() -> diff_erp_data
diff_erp_data
```


```
## # A tibble: 5,020 x 6
##    Subject     x  time       TBF        TBR amplitude_diff
##     <fctr> <chr> <dbl>     <dbl>      <dbl>          <dbl>
##  1      S1           0 1.2075636 -0.2856621     -1.4932258
##  2      S1           4 1.3754103 -0.1936692     -1.5690796
##  3      S1           8 0.8019341 -0.5003122     -1.3022463
##  4      S1          12 1.5642378 -0.5148374     -2.0790752
##  5      S1          16 1.4103783 -0.3534464     -1.7638247
##  6      S1          20 0.9045071 -0.1855997     -1.0901068
##  7      S1          24 0.9954240 -0.2614535     -1.2568775
##  8      S1          28 0.8392334  0.1145876     -0.7246458
##  9      S1          32 1.0280609  0.1839858     -0.8440751
## 10      S1          36 0.6224315  0.2614535     -0.3609780
## # ... with 5,010 more rows
```
…
## Create informative ERP plots - differences

Compute the difference between conditions


```r
erp_data %>% 
  spread(key = Instruction, value = amplitude) %>%
  mutate(amplitude_diff = TBR - TBF) -> diff_erp_data
diff_erp_data
```

```
## # A tibble: 5,020 x 6
##    Subject     x  time       TBF        TBR amplitude_diff
##     <fctr> <chr> <dbl>     <dbl>      <dbl>          <dbl>
##  1      S1           0 1.2075636 -0.2856621     -1.4932258
##  2      S1           4 1.3754103 -0.1936692     -1.5690796
##  3      S1           8 0.8019341 -0.5003122     -1.3022463
##  4      S1          12 1.5642378 -0.5148374     -2.0790752
##  5      S1          16 1.4103783 -0.3534464     -1.7638247
##  6      S1          20 0.9045071 -0.1855997     -1.0901068
##  7      S1          24 0.9954240 -0.2614535     -1.2568775
##  8      S1          28 0.8392334  0.1145876     -0.7246458
##  9      S1          32 1.0280609  0.1839858     -0.8440751
## 10      S1          36 0.6224315  0.2614535     -0.3609780
## # ... with 5,010 more rows
```
…
